Mario
…
###Ungroup all and select the Unique ID, n, and total of specific card per box
library(dplyr)
MTG_Vegan <- MTG_Vegan %>% 
  ungroup()%>%
  dplyr::select(uniID, n, total)
MTG_Vegan <- MTG_Vegan %>% group_by(uniID, total) %>% summarise(Total = sum(n))

## `summarise()` regrouping output by 'uniID' (override with `.groups` argument)

MTG_Vegan

## # A tibble: 51 x 3
## # Groups:   uniID [12]
##    uniID            total Total
##    <chr>            <int> <int>
##  1 Core 2021 Common     1    29
##  2 Core 2021 Common     2     6
##  3 Core 2021 Common     3     1
##  4 Core 2021 Common     4     3
##  5 Core 2021 Common     5   111
##  6 Core 2021 Mythic     1     7
##  7 Core 2021 Mythic     2     6
##  8 Core 2021 Mythic     3     1
##  9 Core 2021 Rare       1    18
## 10 Core 2021 Rare       2    15
## #  with 41 more rows
…
